Написать функцию, определяющую валидность строки на открытие / закрытие скобок. Принимает строку, возвращает boolean.

Пример:
1) (([<{{}}>]()){}) - true
2) (te[s]t<>) - true
3) <>([] - false
4) {<>(}[]) - false
